module sprint3

go 1.13

require (
	github.com/alecthomas/template v0.0.0-20190718012654-fb15b899a751
	github.com/cpuguy83/go-md2man/v2 v2.0.0 // indirect
	github.com/go-openapi/spec v0.19.7 // indirect
	github.com/go-openapi/swag v0.19.9 // indirect
	github.com/gorilla/handlers v1.4.2 // indirect
	github.com/gorilla/mux v1.7.4
	github.com/jinzhu/gorm v1.9.12
	github.com/lib/pq v1.5.1
	github.com/mailru/easyjson v0.7.1 // indirect
	github.com/stretchr/testify v1.5.1 // indirect
	github.com/subosito/gotenv v1.2.0
	github.com/swaggo/http-swagger v0.0.0-20200308142732-58ac5e232fba
	github.com/swaggo/swag v1.6.5
	github.com/unrolled/render v1.0.3
	github.com/urfave/cli v1.22.4 // indirect
	golang.org/x/net v0.0.0-20200505041828-1ed23360d12c // indirect
	golang.org/x/tools v0.0.0-20200505023115-26f46d2f7ef8 // indirect
	gopkg.in/yaml.v2 v2.2.8 // indirect
)
